\relax 
\@writefile{toc}{\contentsline {section}{\numberline {1}Introduction}{1}}
\@writefile{toc}{\contentsline {subsection}{\numberline {1.1}Challenges}{1}}
\@writefile{toc}{\contentsline {subsubsection}{\numberline {1.1.1}Co-Reference Resolution}{1}}
\@writefile{toc}{\contentsline {subsubsection}{\numberline {1.1.2}Schema Alignment}{1}}
\@writefile{toc}{\contentsline {subsubsection}{\numberline {1.1.3}Instance matching}{1}}
\@writefile{toc}{\contentsline {subsubsection}{\numberline {1.1.4}Querying}{1}}
\@writefile{toc}{\contentsline {section}{\numberline {2}BACKGROUND}{1}}
\@writefile{toc}{\contentsline {subsection}{\numberline {2.1}Algorithms}{1}}
\@writefile{toc}{\contentsline {subsubsection}{\numberline {2.1.1}Terminologies in PARIS}{1}}
\@writefile{toc}{\contentsline {subsection}{\numberline {2.2}Assumptions}{1}}
\@writefile{toc}{\contentsline {subsection}{\numberline {2.3}PARIS}{2}}
\@writefile{toc}{\contentsline {subsection}{\numberline {2.4}Enhancements}{2}}
\@writefile{lof}{\contentsline {figure}{\numberline {1}{\ignorespaces System Architecture}}{2}}
\newlabel{fig:systemarch}{{1}{2}}
\@writefile{toc}{\contentsline {section}{\numberline {3}Algorithm and System Description}{2}}
\@writefile{toc}{\contentsline {subsection}{\numberline {3.1}System Architecture}{2}}
\@writefile{toc}{\contentsline {subsection}{\numberline {3.2}Query Translation Engine}{2}}
\@writefile{toc}{\contentsline {subsubsection}{\numberline {3.2.1}Where condition with relation column}{3}}
\@writefile{toc}{\contentsline {subsubsection}{\numberline {3.2.2}Where condition without relation:}{3}}
\@writefile{toc}{\contentsline {section}{\numberline {4}Experiments}{3}}
\@writefile{toc}{\contentsline {subsection}{\numberline {4.1}Datasets}{3}}
\@writefile{toc}{\contentsline {subsubsection}{\numberline {4.1.1}Nell}{3}}
\@writefile{toc}{\contentsline {subsubsection}{\numberline {4.1.2}Yago}{3}}
\@writefile{toc}{\contentsline {subsection}{\numberline {4.2}Demonstration}{3}}
\@writefile{lot}{\contentsline {table}{\numberline {1}{\ignorespaces Comparison table among Yago, Nell and SigmaKB facts}}{3}}
\@writefile{toc}{\contentsline {subsubsection}{\numberline {4.2.1}Basic Select Query with single entity}{3}}
\@writefile{toc}{\contentsline {subsubsection}{\numberline {4.2.2}Basic Select Query with relation}{3}}
\@writefile{toc}{\contentsline {subsubsection}{\numberline {4.2.3}Select Query with compound conditions}{3}}
\@writefile{toc}{\contentsline {subsubsection}{\numberline {4.2.4}Aggregate Queries}{3}}
\@writefile{toc}{\contentsline {subsubsection}{\numberline {4.2.5}Join Query: The example query below gives the list of father son actor duo}{3}}
\@writefile{toc}{\contentsline {subsubsection}{\numberline {4.2.6}Sub Query : The movies in which husband of Vanessa Paradis has acted in.}{3}}
\@writefile{toc}{\contentsline {subsection}{\numberline {4.3}Metrics}{3}}
\@writefile{toc}{\contentsline {subsubsection}{\numberline {4.3.1}Precision}{3}}
\@writefile{lof}{\contentsline {figure}{\numberline {2}{\ignorespaces Precision}}{4}}
\newlabel{fig:Precision}{{2}{4}}
\@writefile{toc}{\contentsline {subsubsection}{\numberline {4.3.2}Recall}{4}}
\@writefile{toc}{\contentsline {subsection}{\numberline {4.4}Results}{4}}
\@writefile{toc}{\contentsline {subsubsection}{\numberline {4.4.1}Multi Mapping}{4}}
\@writefile{toc}{\contentsline {subsubsection}{\numberline {4.4.2}Top Relation Mapping}{4}}
\@writefile{toc}{\contentsline {subsubsection}{\numberline {4.4.3}Longest Common Substring}{4}}
\@writefile{toc}{\contentsline {section}{\numberline {5}Conclusion}{4}}
\@writefile{lof}{\contentsline {figure}{\numberline {3}{\ignorespaces Recall}}{4}}
\newlabel{fig:Recall}{{3}{4}}
